[{
    "category": "PHP",
    "name": "PHP",
    "link": "https://secure.php.net/"
  },
  {
    "category": "PHP",
    "name": "Laravel",
    "link": "https://laravel.com/"
  },
  {
    "category": "PHP",
    "name": "Yii Framework",
    "link": "https://www.yiiframework.com/"
  },
  {
    "category": "PHP",
    "name": "Drupal Module Coding",
    "link": "https://www.drupal.org/"
  },
  {
    "category": "PHP",
    "name": "WordPress Module Coding",
    "link": "https://wordpress.org/"
  },



  {
    "category": "JavaScript",
    "name": "JavaScript",
    "link": "https://developer.mozilla.org/en-US/docs/Web/JavaScript"
  },
  {
    "category": "JavaScript",
    "name": "Vue",
    "link": "https://vuejs.org/"
  },
  {
    "category": "JavaScript",
    "name": "jQuery",
    "link": "https://jquery.com/"
  },
  {
    "category": "JavaScript",
    "name": "React",
    "link": "https://reactjs.org/"
  },
  {
    "category": "JavaScript",
    "name": "Drupal Module Coding",
    "link": "https://www.drupal.org/"
  },
  {
    "category": "JavaScript",
    "name": "Node",
    "link": "https://nodejs.org/en/"
  },
  {
    "category": "JavaScript",
    "name": "NPM",
    "link": "https://www.npmjs.com/"
  },
  {
    "category": "JavaScript",
    "name": "Express",
    "link": "https://expressjs.com/"
  },
  {
    "category": "JavaScript",
    "name": "Ajax",
    "link": "https://developer.mozilla.org/en-US/docs/Web/Guide/AJAX"
  },



  {
    "category": "Database",
    "name": "SQL",
    "link": "https://en.wikipedia.org/wiki/SQL"
  },
  {
    "category": "Database",
    "name": "MySQL",
    "link": "https://www.mysql.com/"
  },
  {
    "category": "Database",
    "name": "PostgreSQL",
    "link": "https://www.postgresql.org/"
  },
  {
    "category": "Database",
    "name": "phpMyAdmin",
    "link": "https://www.phpmyadmin.net/"
  },
  {
    "category": "Database",
    "name": "Microsoft Access",
    "link": "https://www.microsoft.com/"
  },



  {
    "category": "Front End",
    "name": "HTML",
    "link": "https://developer.mozilla.org/en-US/docs/Web/HTML"
  },
  {
    "category": "Front End",
    "name": "CSS",
    "link": "https://developer.mozilla.org/en-US/docs/Web/CSS"
  },
  {
    "category": "Front End",
    "name": "Bulma",
    "link": "https://www.postgresql.https://bulma.io/org/"
  },
  {
    "category": "Front End",
    "name": "Bootstrap",
    "link": "https://getbootstrap.com/"
  },
  {
    "category": "Front End",
    "name": "Zurb",
    "link": "https://foundation.zurb.com/"
  },
  {
    "category": "Front End",
    "name": "Sass",
    "link": "https://sass-lang.com/"
  },
  {
    "category": "Front End",
    "name": "Gulp",
    "link": "https://gulpjs.com/"
  },
  {
    "category": "Front End",
    "name": "Pure",
    "link": "https://purecss.io/"
  },
  {
    "category": "Front End",
    "name": "Min",
    "link": "http://mincss.com/"
  },



  {
    "category": "Static Sites",
    "name": "Hugo",
    "link": "https://gohugo.io/"
  },
  {
    "category": "Static Sites",
    "name": "Jekyll",
    "link": "https://jekyllrb.com/"
  },



  {
    "category": "Content Management",
    "name": "Drupal",
    "link": "https://www.drupal.org/"
  },
  {
    "category": "Content Management",
    "name": "WordPress",
    "link": "https://wordpress.org/"
  },
  {
    "category": "Content Management",
    "name": "Joomla",
    "link": "https://www.joomla.org/"
  },



  {
    "category": "Code Management",
    "name": "Git",
    "link": "https://git-scm.com/"
  },
  {
    "category": "Code Management",
    "name": "GitLab",
    "link": "https://about.gitlab.com/"
  },
  {
    "category": "Code Management",
    "name": "GitHub",
    "link": "https://github.com//"
  },
  {
    "category": "Code Management",
    "name": "Bitbucket",
    "link": "https://bitbucket.org/"
  },
  {
    "category": "Code Management",
    "name": "Atom",
    "link": "https://atom.io/"
  },
  {
    "category": "Code Management",
    "name": "NetBeans",
    "link": "https://netbeans.org/"
  },
  {
    "category": "Code Management",
    "name": "Eclipse",
    "link": "https://www.eclipse.org/"
  },
  {
    "category": "Code Management",
    "name": "Notepad++",
    "link": "https://notepad-plus-plus.org/"
  },
  {
    "category": "Code Management",
    "name": "Markdown",
    "link": "https://daringfireball.net/projects/markdown/"
  },
  {
    "category": "Code Management",
    "name": "Chrome Developer Tools",
    "link": "https://developers.google.com/web/tools/chrome-devtools/?utm_source=dcc&utm_medium=redirect&utm_campaign=2018Q2"
  },


  {
    "category": "Operating Systems",
    "name": "Windows",
    "link": "https://www.microsoft.com/en-us/"
  },
  {
    "category": "Operating Systems",
    "name": "Linux",
    "link": "https://www.linux.com/"
  },
  {
    "category": "Operating Systems",
    "name": "Red Hat",
    "link": "https://www.redhat.com/en"
  },
  {
    "category": "Operating Systems",
    "name": "CentOS",
    "link": "https://www.centos.org/"
  },
  {
    "category": "Operating Systems",
    "name": "Ubuntu",
    "link": "https://www.ubuntu.com/"
  },



  {
    "category": "Graphics",
    "name": "Photoshop",
    "link": "https://www.adobe.com/"
  },
  {
    "category": "Graphics",
    "name": "Illustrator",
    "link": "https://www.adobe.com/"
  },
  {
    "category": "Graphics",
    "name": "Corel Painter",
    "link": "https://www.painterartist.com/en/"
  },
  {
    "category": "Graphics",
    "name": "Gimp",
    "link": "https://www.gimp.org/"
  },
  {
    "category": "Graphics",
    "name": "Darktable",
    "link": "http://www.darktable.org/"
  }
]
